<?xml version="1.0" encoding="utf-8"?>
<!-- Generator: Adobe Illustrator 17.0.0, SVG Export Plug-In . SVG Version: 6.00 Build 0)  -->
<!DOCTYPE svg PUBLIC "-//W3C//DTD SVG 1.1//EN" "http://www.w3.org/Graphics/SVG/1.1/DTD/svg11.dtd">
<svg version="1.1" id="Слой_1" xmlns="http://www.w3.org/2000/svg" xmlns:xlink="http://www.w3.org/1999/xlink" x="0px" y="0px"
	 width="694.559px" height="168.378px" viewBox="76.401 508.139 694.559 168.378"
	 style="enable-background:new 76.401 508.139 694.559 168.378;" xml:space="preserve">
<style type="text/css">
	.st0{fill:#92A5AA;stroke:#323232;stroke-miterlimit:10;}
</style>
<polygon class="st0" points="76.401,508.139 139.543,592.328 76.401,676.517 707.819,676.517 770.961,592.328 707.819,508.139 "/>
</svg>
