{
    "en": {
        "funel.appointments": "Appointments",
        "funel.record": "Record",
        "funel.repair": "Repair",
        "funel.done": "Done",
        "funel.cancel": "Cancel",
        "funel.review": "Review",
        "funel.invitation": "Invitation"
    },
    "ru": {
        "funel.appointments": "Обращения",
        "funel.record": "Запись",
        "funel.repair": "Ремонт",
        "funel.done": "Выполнено",
        "funel.cancel": "Отказ",
        "funel.review": "Отзыв",
        "funel.invitation": "Приглашение"
    },
    "uk": {
        "funel.appointments": "Звернення",
        "funel.record": "Запис",
        "funel.repair": "Ремонт",
        "funel.done": "Виконано",
        "funel.cancel": "Відмова",
        "funel.review": "Відгук",
        "funel.invitation": "Запрошення"
    }
}
